<?xml version="1.0" standalone="no"?>
<svg width="16" height="16" viewBox="0 0 16 16" fill="none" xmlns="http://www.w3.org/2000/svg">
    <path fill-rule="evenodd" clip-rule="evenodd" d="M13.3529 2.64697H2.64703V13.3529H13.3529V2.64697ZM12.4609 3.53912H3.53929V12.4607H12.4609V3.53912Z" fill="#4F4F4F"/>
    <path fill-rule="evenodd" clip-rule="evenodd" d="M15 1H12.5294V3.47059H15V1ZM14.1765 1.82352H13.353V2.64705H14.1765V1.82352Z" fill="#4F4F4F"/>
    <path fill-rule="evenodd" clip-rule="evenodd" d="M9.2353 1H6.76471V3.47059H9.2353V1ZM8.41171 1.82352H7.58818V2.64705H8.41171V1.82352Z" fill="#4F4F4F"/>
    <path fill-rule="evenodd" clip-rule="evenodd" d="M9.2353 12.5294H6.76471V15H9.2353V12.5294ZM8.41171 13.3528H7.58818V14.1764H8.41171V13.3528Z" fill="#4F4F4F"/>
    <path fill-rule="evenodd" clip-rule="evenodd" d="M15 6.76465H12.5294V9.23524H15V6.76465ZM14.1765 7.58813H13.353V8.41166H14.1765V7.58813Z" fill="#4F4F4F"/>
    <path fill-rule="evenodd" clip-rule="evenodd" d="M15 12.5294H12.5294V15H15V12.5294ZM14.1765 13.3528H13.353V14.1764H14.1765V13.3528Z" fill="#4F4F4F"/>
    <path fill-rule="evenodd" clip-rule="evenodd" d="M3.47059 12.5294H1V15H3.47059V12.5294ZM2.64705 13.3528H1.82352V14.1764H2.64705V13.3528Z" fill="#4F4F4F"/>
    <path fill-rule="evenodd" clip-rule="evenodd" d="M3.47059 6.76465H1V9.23524H3.47059V6.76465ZM2.64705 7.58813H1.82352V8.41166H2.64705V7.58813Z" fill="#4F4F4F"/>
    <path fill-rule="evenodd" clip-rule="evenodd" d="M3.47059 1H1V3.47059H3.47059V1ZM2.64705 1.82352H1.82352V2.64705H2.64705V1.82352Z" fill="#4F4F4F"/>
    <path d="M7.58826 10.8823H8.98576C9.61797 10.8735 10.8824 10.4796 10.8824 8.97376C10.8824 8.70186 10.8824 7.93672 10.8824 7.58813" stroke="#4F4F4F" stroke-width="0.75" stroke-linejoin="round"/>
    <path d="M10.0588 8.41166L10.8823 7.58813L11.7058 8.41166" stroke="#4F4F4F" stroke-width="0.75" stroke-linecap="square" stroke-linejoin="round"/>
    <path d="M8.41179 11.7059L7.58826 10.8824L8.41179 10.0589" stroke="#4F4F4F" stroke-width="0.75" stroke-linecap="square" stroke-linejoin="round"/>
</svg>

