<?xml version="1.0" standalone="no"?>
<svg width="32" height="32" viewBox="0 0 32 32" fill="none" xmlns="http://www.w3.org/2000/svg">
    <path d="M28 28L6 6" stroke="#4F4F4F" stroke-width="1.5" stroke-linecap="round" stroke-linejoin="round"/>
    <circle cx="17" cy="17" r="2" fill="#4F4F4F"/>
    <circle cx="28" cy="28" r="2" fill="#4F4F4F"/>
    <circle cx="6" cy="6" r="2" fill="#4F4F4F"/>
</svg>



