<svg width="32" height="33" viewBox="0 0 32 33" fill="none" xmlns="http://www.w3.org/2000/svg">
    <path d="M23.0572 17.1379V13.4583V10.1356C23.0572 9.83354 22.8101 9.5864 22.508 9.5864H18.3341C18.0046 9.5864 17.7575 9.31179 17.7575 9.00974V4.83582C17.7575 4.53376 17.5103 4.28662 17.2083 4.28662H9.49201C9.18995 4.28662 8.94281 4.53376 8.94281 4.83582V13.4583V17.1379L16 22.7672L23.0572 17.1379ZM10.7277 5.76946H16C16.3021 5.76946 16.5767 5.98914 16.6041 6.2912C16.6316 6.64818 16.357 6.92278 16.0275 6.92278H10.7552C10.4531 6.92278 10.1785 6.7031 10.1511 6.40104C10.0961 6.07152 10.3707 5.76946 10.7277 5.76946ZM10.7277 8.43307H16C16.3021 8.43307 16.5767 8.65275 16.6041 8.95481C16.6316 9.31179 16.357 9.5864 16.0275 9.5864H10.7552C10.4531 9.5864 10.1785 9.36672 10.1511 9.06466C10.0961 8.70768 10.3707 8.43307 10.7277 8.43307ZM10.7277 11.0692H21.4371C21.7391 11.0692 22.0137 11.2889 22.0412 11.591C22.0687 11.9479 21.7941 12.2226 21.4645 12.2226H10.7552C10.4531 12.2226 10.1785 12.0029 10.1511 11.7008C10.0961 11.3438 10.3707 11.0692 10.7277 11.0692ZM10.1511 14.2271C10.1785 13.9251 10.4531 13.7054 10.7552 13.7054H21.4371C21.7391 13.7054 22.0137 13.9251 22.0412 14.2271C22.0687 14.5841 21.7941 14.8587 21.4645 14.8587H10.7277C10.3707 14.8862 10.0961 14.5841 10.1511 14.2271ZM13.0069 16.8358C13.0618 16.5612 13.3089 16.3415 13.611 16.3415H18.6087C18.9108 16.3415 19.1854 16.5612 19.2128 16.8633C19.2403 17.2203 18.9657 17.4949 18.6362 17.4949H13.5561C13.2266 17.5223 12.952 17.2203 13.0069 16.8358Z" fill="#01686F"/>
    <path d="M4 15.8197V26.6938C4 27.1332 4.52174 27.4078 4.87872 27.1332L12.6224 21.5588L4.90618 15.4078C4.5492 15.0783 4 15.3529 4 15.8197Z" fill="#01686F"/>
    <path d="M24.2105 14.0347V16.204L26.9565 14.0347H24.2105Z" fill="#01686F"/>
    <path d="M18.9382 5.11035V8.43301H22.2334L18.9382 5.11035Z" fill="#01686F"/>
    <path d="M7.81692 14.0347H5.07092L7.81692 16.204V14.0347Z" fill="#01686F"/>
    <path d="M16.3844 23.948C16.2746 24.0304 16.1373 24.0853 16.0274 24.0853C15.9176 24.0853 15.7803 24.0304 15.6704 23.948L13.5835 22.2729L6.60867 27.2981C6.16931 27.6002 6.38899 28.2867 6.93818 28.2867H25.0892C25.611 28.2867 25.8306 27.6002 25.4187 27.2981L18.4439 22.2729L16.3844 23.948Z" fill="#01686F"/>
    <path d="M28.0275 26.6664V15.7923C28.0275 15.3255 27.5057 15.0783 27.1487 15.3529L19.4325 21.504L27.1762 27.0783C27.5057 27.3804 28.0275 27.1332 28.0275 26.6664Z" fill="#01686F"/>
</svg>
