<?xml version="1.0" standalone="no"?>
<svg width="16" height="16" viewBox="0 0 16 16" fill="none" xmlns="http://www.w3.org/2000/svg">
    <path d="M13.6 0H2.4C1.76348 0 1.15303 0.316071 0.702944 0.87868C0.252856 1.44129 0 2.20435 0 3V13C0 13.7956 0.252856 14.5587 0.702944 15.1213C1.15303 15.6839 1.76348 16 2.4 16H13.6C14.2365 16 14.847 15.6839 15.2971 15.1213C15.7471 14.5587 16 13.7956 16 13V3C16 2.20435 15.7471 1.44129 15.2971 0.87868C14.847 0.316071 14.2365 0 13.6 0ZM2.4 14C2.18783 14 1.98434 13.8946 1.83431 13.7071C1.68429 13.5196 1.6 13.2652 1.6 13V10.58L4.24 7.29C4.38954 7.10677 4.5906 7.00414 4.8 7.00414C5.0094 7.00414 5.21046 7.10677 5.36 7.29L10.728 14H2.4ZM14.4 13C14.4 13.2652 14.3157 13.5196 14.1657 13.7071C14.0157 13.8946 13.8122 14 13.6 14H12.984L9.936 10.17L10.64 9.29C10.7895 9.10677 10.9906 9.00414 11.2 9.00414C11.4094 9.00414 11.6105 9.10677 11.76 9.29L14.4 12.58V13ZM14.4 9.76L12.896 7.89C12.44 7.34243 11.8323 7.03663 11.2 7.03663C10.5677 7.03663 9.95995 7.34243 9.504 7.89L8.8 8.77L6.496 5.89C6.04005 5.34243 5.43228 5.03663 4.8 5.03663C4.16772 5.03663 3.55995 5.34243 3.104 5.89L1.6 7.76V3C1.6 2.73478 1.68429 2.48043 1.83431 2.29289C1.98434 2.10536 2.18783 2 2.4 2H13.6C13.8122 2 14.0157 2.10536 14.1657 2.29289C14.3157 2.48043 14.4 2.73478 14.4 3V9.76Z"
          fill="#BDBDBD"/>
</svg>






