<svg width="32" height="33" viewBox="0 0 32 33" fill="none" xmlns="http://www.w3.org/2000/svg">
    <path d="M3.65796 28.9692H28.5226C28.8803 28.9692 29.1785 28.6711 29.1785 28.3133V9.88849V5.65495C29.1785 5.26737 28.8803 4.96924 28.4927 4.96924H3.65796C3.30019 4.96924 3.00206 5.26737 3.00206 5.62514V28.2835C2.97224 28.6413 3.27038 28.9692 3.65796 28.9692ZM15.1362 27.0015H4.73125V26.1668H15.1362V27.0015ZM15.1362 24.5866H4.73125V23.7518H15.1362V24.5866ZM15.1362 22.1717H4.73125V21.3369H15.1362V22.1717ZM15.1362 19.7568H4.73125V18.922H15.1362V19.7568ZM15.1362 17.3717H4.73125V16.5369H15.1362V17.3717ZM27.33 27.0015H16.925V26.1668H27.33V27.0015ZM27.33 24.5866H16.925V23.7518H27.33V24.5866ZM27.33 22.1717H16.925V21.3369H27.33V22.1717ZM27.33 19.7568H16.925V18.922H27.33V19.7568ZM27.33 17.3717H16.925V16.5369H27.33V17.3717ZM22.4107 10.5742C22.2617 10.4251 21.9934 10.1866 21.6952 9.88849C21.4269 9.62017 21.2182 9.38166 21.1288 9.17296C21.0095 8.93445 20.9499 8.69595 20.9499 8.39781C20.9499 7.89098 21.1288 7.53321 21.4567 7.26489C21.6654 7.11582 21.9039 7.02638 22.2319 7.02638C22.53 7.02638 22.7685 7.08601 22.9772 7.23508C23.1263 7.32452 23.2753 7.47359 23.3648 7.65247C23.4542 7.83135 23.5139 8.04004 23.5437 8.27855L22.7685 8.42762C22.7387 8.18911 22.6791 8.04004 22.5896 7.92079C22.53 7.83135 22.4107 7.80154 22.2617 7.80154C22.1126 7.80154 21.9934 7.86116 21.9337 8.01023C21.8741 8.12949 21.8443 8.24874 21.8443 8.39781C21.8443 8.63632 21.9635 8.90464 22.1722 9.14315C22.2617 9.23259 22.3809 9.35184 22.53 9.4711C22.7089 9.62017 22.858 9.73942 22.9176 9.79905C23.1263 10.0077 23.2753 10.1866 23.3946 10.3953C23.4542 10.4848 23.484 10.5742 23.5139 10.6636C23.6033 10.8425 23.6331 11.0214 23.6331 11.1705C23.6331 11.5581 23.5437 11.8562 23.335 12.1245C23.2157 12.3034 23.007 12.4227 22.7685 12.5121C22.6493 12.5419 22.5002 12.5717 22.3213 12.5717C21.9934 12.5717 21.725 12.4823 21.5163 12.3332C21.3375 12.214 21.1884 12.0351 21.0989 11.7966C21.0095 11.5581 20.9499 11.3196 20.9201 11.0214L21.6952 10.9618C21.725 11.2897 21.8145 11.4984 21.9337 11.6475C22.0232 11.7668 22.1424 11.7966 22.2617 11.7966C22.4406 11.7966 22.5896 11.7071 22.6791 11.5282C22.7387 11.4388 22.7685 11.3196 22.7685 11.1705C22.7089 11.0214 22.6194 10.8127 22.4107 10.5742ZM16.5971 7.14563L17.0145 10.0376L17.4021 7.14563H18.2667L18.684 10.0376L19.0716 7.14563H19.9362L19.1014 12.5419H18.3263L17.8493 9.56054L17.4021 12.5419H16.6269L15.7325 7.11582L16.5971 7.14563ZM12.3635 7.14563H14.689V7.98042H13.1685V9.4711H14.2716V10.3059H13.1685V11.7966H14.689V12.6313H12.3635V7.14563ZM8.3387 7.14563H9.26293L10.3362 10.7829V7.14563H11.1412V12.5717H10.2766L9.14367 9.11334V12.5717H8.3387V7.14563ZM4.70143 13.7941H27.3598V14.7183H4.70143V13.7941Z" fill="#01686F"/>
</svg>

