<?xml version="1.0" standalone="no"?>
<svg width="16" height="16" viewBox="0 0 16 16" fill="none" xmlns="http://www.w3.org/2000/svg">
    <path d="M10.5 6.25C10.5 6.44891 10.421 6.63968 10.2803 6.78033C10.1397 6.92098 9.94891 7 9.75 7C9.55109 7 9.36032 6.92098 9.21967 6.78033C9.07902 6.63968 9 6.44891 9 6.25C9 6.05109 9.07902 5.86032 9.21967 5.71967C9.36032 5.57902 9.55109 5.5 9.75 5.5C9.94891 5.5 10.1397 5.57902 10.2803 5.71967C10.421 5.86032 10.5 6.05109 10.5 6.25ZM14.5 3.5V11.5V12.5C14.5 12.7652 14.3946 13.0196 14.2071 13.2071C14.0196 13.3946 13.7652 13.5 13.5 13.5H2.5C2.23478 13.5 1.98043 13.3946 1.79289 13.2071C1.60536 13.0196 1.5 12.7652 1.5 12.5V10.5V3.5C1.5 3.23478 1.60536 2.98043 1.79289 2.79289C1.98043 2.60536 2.23478 2.5 2.5 2.5H13.5C13.7652 2.5 14.0196 2.60536 14.2071 2.79289C14.3946 2.98043 14.5 3.23478 14.5 3.5ZM13.5 10.2937V3.5H2.5V9.29375L4.79375 7C4.98201 6.8145 5.2357 6.71051 5.5 6.71051C5.7643 6.71051 6.01799 6.8145 6.20625 7L9 9.79375L10.2937 8.5C10.482 8.3145 10.7357 8.21051 11 8.21051C11.2643 8.21051 11.518 8.3145 11.7063 8.5L13.5 10.2937Z"
          fill="white"/>
</svg>




