<?xml version="1.0" standalone="no"?>
<svg width="32" height="32" viewBox="0 0 32 32" fill="none" xmlns="http://www.w3.org/2000/svg">
    <path d="M16 22C19.3137 22 22 19.3137 22 16C22 12.6863 19.3137 10 16 10C12.6863 10 10 12.6863 10 16C10 19.3137 12.6863 22 16 22Z" stroke="#4F4F4F" stroke-linecap="round" stroke-linejoin="round"/>
    <path d="M22.9625 8.13751C23.2792 8.42918 23.5792 8.72918 23.8625 9.03751L27.275 9.52501C27.831 10.4906 28.2596 11.5242 28.55 12.6L26.475 15.3625C26.475 15.3625 26.5125 16.2125 26.475 16.6375L28.55 19.4C28.2609 20.4762 27.8323 21.51 27.275 22.475L23.8625 22.9625C23.8625 22.9625 23.275 23.575 22.9625 23.8625L22.475 27.275C21.5094 27.831 20.4758 28.2596 19.4 28.55L16.6375 26.475C16.2133 26.5125 15.7867 26.5125 15.3625 26.475L12.6 28.55C11.5238 28.2609 10.49 27.8323 9.525 27.275L9.0375 23.8625C8.72916 23.5708 8.42916 23.2708 8.1375 22.9625L4.725 22.475C4.16897 21.5094 3.74041 20.4758 3.45 19.4L5.525 16.6375C5.525 16.6375 5.4875 15.7875 5.525 15.3625L3.45 12.6C3.73906 11.5238 4.1677 10.49 4.725 9.52501L8.1375 9.03751C8.42916 8.72918 8.72916 8.42918 9.0375 8.13751L9.525 4.72501C10.4906 4.16899 11.5242 3.74042 12.6 3.45001L15.3625 5.52501C15.7867 5.4875 16.2133 5.4875 16.6375 5.52501L19.4 3.45001C20.4762 3.73908 21.51 4.16771 22.475 4.72501L22.9625 8.13751Z" stroke="#4F4F4F" stroke-linecap="round" stroke-linejoin="round"/>
</svg>



