<svg width="32" height="32" viewBox="0 0 32 32" fill="none" xmlns="http://www.w3.org/2000/svg">
    <path d="M28.0522 12.7899C28.0522 13.5561 27.701 13.9392 27.1583 14.1946C25.3385 15.0247 23.5188 15.8867 21.7309 16.7167C18.6022 18.1853 15.5054 19.622 12.3767 21.0905C11.3232 21.5694 10.6847 21.3459 10.1738 20.2924C9.21607 18.2491 8.25831 16.2059 7.33246 14.1627C6.8855 13.2049 7.14091 12.5345 8.09868 12.0875C13.0152 9.78887 17.9318 7.49022 22.8483 5.2235C23.1357 5.0958 23.4549 5 23.7742 5C24.3488 5 24.7319 5.38312 24.9554 5.89393C25.562 7.17096 26.1367 8.44799 26.7432 9.69309C27.1264 10.5232 27.5095 11.3213 27.8926 12.1514C27.9564 12.4068 28.0203 12.6622 28.0522 12.7899ZM9.47148 14.4181C9.69496 14.3223 9.85459 14.2904 9.98229 14.2265C14.388 12.1833 18.7938 10.1081 23.2314 8.06485C23.3591 8.001 23.4868 7.93716 23.6145 7.87331C23.8699 7.68175 23.9657 7.45829 23.838 7.17096C23.7103 6.88363 23.4549 6.78784 23.1357 6.88362C23.0079 6.91555 22.8802 6.9794 22.7525 7.04325C18.3787 9.08649 14.0049 11.1297 9.59918 13.173C9.47148 13.2368 9.27992 13.3007 9.21607 13.3965C9.1203 13.588 9.02452 13.8115 9.05644 14.0031C9.08837 14.1308 9.31185 14.2584 9.47148 14.4181Z"
          fill="white"/>
    <path d="M30.0004 24.1553V26.0708C30.0004 26.2943 29.8408 26.4539 29.6173 26.4539H28.021C25.7224 26.4539 23.4237 26.4539 21.1251 26.4539C20.9974 26.4539 20.8697 26.4539 20.7739 26.4539C19.9119 26.3901 19.4011 25.8793 19.3692 25.0173C19.3373 24.2191 19.3692 23.389 19.3692 22.5909C19.3692 22.3355 19.3053 22.2397 19.0499 22.1759C18.0283 21.9205 17.2621 21.282 16.7832 20.2923C18.9222 19.3026 21.0612 18.3129 23.2322 17.2913C23.743 18.6002 23.6153 19.7815 22.7852 20.9308C22.6575 21.1223 22.466 21.282 22.3063 21.4097C22.1148 21.5693 22.0509 21.7609 22.0829 21.9844C22.0829 22.559 22.0829 23.1337 22.0829 23.7403C24.6688 23.7403 27.1271 23.7403 29.6812 23.7403C29.8408 23.7722 30.0004 23.9318 30.0004 24.1553Z"
          fill="white"/>
    <path d="M6.75813 15.6313C7.42857 17.0361 8.03516 18.377 8.7056 19.7817C8.35442 19.9413 8.03516 20.1329 7.7159 20.2606C7.4605 20.3563 7.3328 20.516 7.23702 20.7394C7.07739 21.1545 6.91776 21.6014 6.69428 21.9846C6.56658 22.208 6.37503 22.3676 6.18347 22.5273C5.95999 22.6869 5.70459 22.7507 5.48111 22.8785C5.098 23.0381 4.90645 22.9742 4.7149 22.5592C4.17216 21.4099 3.62942 20.2925 3.11861 19.1432C2.76743 18.4089 2.41625 17.6427 2.09699 16.9084C1.90544 16.5253 2.00121 16.3656 2.3524 16.1422C3.02283 15.7271 3.69327 15.5675 4.42756 15.9506C5.12993 16.3018 5.80037 16.2379 6.43888 15.8229C6.50273 15.7271 6.63043 15.7271 6.75813 15.6313Z"
          fill="white"/>
</svg>


